<?xml version="1.0" encoding="UTF-8" standalone="no"?>
<!-- Created with Inkscape (http://www.inkscape.org/) -->

<svg
   xmlns:dc="http://purl.org/dc/elements/1.1/"
   xmlns:cc="http://creativecommons.org/ns#"
   xmlns:rdf="http://www.w3.org/1999/02/22-rdf-syntax-ns#"
   xmlns:svg="http://www.w3.org/2000/svg"
   xmlns="http://www.w3.org/2000/svg"
   xmlns:sodipodi="http://sodipodi.sourceforge.net/DTD/sodipodi-0.dtd"
   xmlns:inkscape="http://www.inkscape.org/namespaces/inkscape"
   id="svg2"
   version="1.1"
   inkscape:version="0.91 r13725"
   width="65"
   height="65"
   viewBox="0 0 65 64.999999"
   sodipodi:docname="ico.svg">
  <metadata
     id="metadata8">
    <rdf:RDF>
      <cc:Work
         rdf:about="">
        <dc:format>image/svg+xml</dc:format>
        <dc:type
           rdf:resource="http://purl.org/dc/dcmitype/StillImage" />
        <dc:title></dc:title>
      </cc:Work>
    </rdf:RDF>
  </metadata>
  <defs
     id="defs6" />
  <sodipodi:namedview
     pagecolor="#ffffff"
     bordercolor="#666666"
     borderopacity="1"
     objecttolerance="10"
     gridtolerance="10"
     guidetolerance="10"
     inkscape:pageopacity="0"
     inkscape:pageshadow="2"
     inkscape:window-width="1321"
     inkscape:window-height="747"
     id="namedview4"
     showgrid="false"
     inkscape:zoom="3.1084003"
     inkscape:cx="-23.817131"
     inkscape:cy="31.463386"
     inkscape:window-x="45"
     inkscape:window-y="21"
     inkscape:window-maximized="1"
     inkscape:current-layer="svg2" />
  <g
     id="g4166"
     transform="matrix(0.94903389,0,0,1,-4.489672,99.624036)">
    <path
       sodipodi:nodetypes="csssssssssssssssccc"
       inkscape:connector-curvature="0"
       id="path4259"
       d="m 42.273147,-39.30227 c 3.189073,-10.472122 -4.480992,-10.594558 -4.886269,-8.264211 -0.405278,2.330348 -0.810556,4.052778 -1.82375,4.458056 -1.013195,0.405278 -8.409515,-1.013194 -12.360974,-10.131945 -3.951458,-9.118751 -0.709236,-13.272848 -0.506597,-14.387362 0.202639,-1.114514 -0.709236,-0.405278 -2.229028,0.303958 -1.519791,0.709236 -7.598959,2.026389 -10.5372228,-0.911875 -2.5511581,-2.551158 -3.8501391,-7.902917 -0.5065972,-13.374167 3.343542,-5.471251 8.206876,-8.308195 10.537223,-8.814792 2.330347,-0.506598 4.660695,-0.709237 5.876528,-0.810556 1.215834,-0.10132 -1.013194,-1.621111 -0.911875,-2.330347 0.10132,-0.709237 7.700278,-2.02639 11.347779,-1.013195 3.6475,1.013195 5.876528,3.6475 6.079167,2.634306 0.202639,-1.013195 -0.10132,-2.938264 5.673889,0.303958 5.775209,3.242223 12.86757,10.638542 13.070209,12.766251 0.202639,2.127708 -3.867844,3.889172 -2.729341,5.786676 0.911875,1.519791 2.386179,3.129178 11.520099,7.962451 3.429172,13.210625 -7.525822,19.67407 -13.435923,18.892466 -3.03108,-2.222714 -11.150154,7.098309 -14.177317,6.930328 z"
       style="fill:#ffffff;fill-opacity:1;fill-rule:evenodd;stroke:none;stroke-width:1px;stroke-linecap:butt;stroke-linejoin:miter;stroke-opacity:1" />
    <path
       sodipodi:nodetypes="cssscsssssssssssssssssssssscsssssss"
       inkscape:connector-curvature="0"
       id="path4164"
       d="m 48.395965,-51.085185 c -1.4298,-0.489251 -3.120205,-1.162351 -4.152959,-2.178618 -1.397975,-1.375661 -2.29871,-3.229728 -2.736413,-4.872959 -1.09826,-4.123098 -2.81998,-7.380046 -6.172729,-9.044574 -1.021952,-0.507365 -1.122674,-0.524283 -3.097664,-0.520311 -1.471318,0.0029 -2.345166,0.708097 -2.982504,0.910515 -1.084292,0.344358 -1.173201,-0.375994 -1.838076,-1.85753 -1.120221,-2.496187 -0.204829,-3.687202 3.481013,-4.52914 2.029009,-0.463475 3.564578,-1.249095 4.521236,-2.313127 1.005638,-1.118512 1.838812,-2.543491 1.823337,-3.691519 -0.0295,-2.188777 0.0097,-2.935457 1.719698,-0.792265 1.53944,1.929386 2.97387,2.648476 3.70196,1.920387 0.753798,-0.753801 0.189673,-2.576327 -0.782808,-5.017865 -0.66492,-1.669367 -0.336003,-2.356868 0.08736,-2.095213 0.281244,0.173817 1.701375,2.419894 2.136305,3.929748 0.467593,1.623243 0.402379,2.913063 0.954476,3.6369 1.066212,1.397874 3.351189,1.563118 4.82327,0.348806 0.854438,-0.704823 0.833773,-1.736107 1.310779,-3.518526 0.225869,-0.843999 0.596303,-2.288882 0.684169,-2.376747 0.199891,-0.199893 1.448666,1.477608 1.88905,2.340833 0.404525,0.792934 0.796444,2.430572 0.383014,3.341653 -0.177048,0.390168 -0.720702,1.46155 -1.347138,2.31134 -1.964507,2.664945 -2.422372,3.128699 -0.255598,4.120056 2.510854,1.148782 6.002531,3.355116 7.327529,5.400539 1.322657,2.041804 1.454136,4.664027 0.776364,6.413571 -0.624139,1.611102 -2.168598,3.484667 -4.074242,4.942415 -0.899111,0.687786 -2.431594,2.473552 -3.517277,2.700012 -1.422504,0.296715 -3.465686,0.901033 -4.662152,0.491619 z m -5.891989,-16.787778 c 0.812427,-0.405144 1.265028,-0.827501 1.583793,-1.891441 0.179611,-0.599483 -0.123635,-0.629511 -0.57236,-1.26797 -0.800586,-1.139091 -1.570168,-1.308934 -2.864827,-1.382089 -1.598583,-0.09033 -1.561333,0.262129 -2.4588,1.757012 -0.485176,0.808142 -0.381285,1.081309 0.216204,2.012415 1.071283,1.66945 2.299038,1.668183 4.09599,0.772073 z"
       style="opacity:1;fill:#ff00b1;fill-opacity:1;stroke:none;stroke-width:1;stroke-miterlimit:4;stroke-dasharray:none;stroke-opacity:1" />
    <path
       sodipodi:nodetypes="cscssssccsssccccsccscc"
       inkscape:connector-curvature="0"
       id="path4152-7"
       d="m 31.500927,-49.397465 c -2.52102,-2.873303 -3.68269,-4.497134 -4.57401,-6.393749 -0.77287,-1.644572 -1.10412,-3.022245 -1.10895,-4.612076 -0.003,-0.953267 0.0374,-1.294174 0.25753,-2.177916 0.24802,-0.995738 0.56822,-1.698992 1.09583,-2.406789 0.87684,-1.176289 1.67532,-1.69048 3.06487,-1.973652 1.34684,-0.274468 2.860458,-0.365857 3.686628,0.0062 1.08915,0.490513 1.338852,1.643749 1.541042,3.298595 0.0614,0.502391 0.01,0.811589 -0.14989,0.897007 -0.16894,0.09041 -0.56938,0.05616 -1.47074,-0.125788 -0.48311,-0.09752 -0.99841,-0.177309 -1.14513,-0.177309 -0.6185,0 -0.68163,0.114962 -0.7372,1.342483 -0.0227,0.501531 0.72358,1.17933 0.69508,1.33109 -0.11268,0.601467 -0.77271,0.983425 -1.17969,0.988237 -0.35442,0.0042 -1.04451,-0.130751 -1.13943,-0.01352 -0.0669,0.08262 -0.0902,0.199435 -0.0894,0.448095 0.002,0.670761 0.26332,1.607491 1.69668,6.08622 0.5947,1.858212 1.121577,2.817006 1.232717,3.402907 0.0899,0.473804 0.170843,1.115614 0.09444,1.317069 -0.0561,0.147939 -0.6335,-0.05928 -0.69932,-0.05928 -0.0207,0 -0.50273,-0.530027 -1.07112,-1.177839 z"
       style="color:#000000;clip-rule:nonzero;display:inline;overflow:visible;visibility:visible;opacity:1;isolation:auto;mix-blend-mode:normal;color-interpolation:sRGB;color-interpolation-filters:linearRGB;solid-color:#000000;solid-opacity:1;fill:#ffcc00;fill-opacity:1;fill-rule:nonzero;stroke:none;stroke-width:1;stroke-linecap:butt;stroke-linejoin:miter;stroke-miterlimit:4;stroke-dasharray:none;stroke-dashoffset:0;stroke-opacity:1;color-rendering:auto;image-rendering:auto;shape-rendering:auto;text-rendering:auto;enable-background:accumulate" />
    <path
       d="m 39.72617,-69.879023 a 0.86121535,0.86121535 0 0 1 0.864858,-0.856338 0.86121535,0.86121535 0 0 1 0.857556,0.86365 0.86121535,0.86121535 0 0 1 -0.862441,0.858772 0.86121535,0.86121535 0 0 1 -0.859987,-0.861229"
       sodipodi:open="true"
       sodipodi:end="3.1416101"
       sodipodi:start="3.1472475"
       sodipodi:ry="0.86121535"
       sodipodi:rx="0.86121535"
       sodipodi:cy="-69.874153"
       sodipodi:cx="40.587372"
       sodipodi:type="arc"
       id="path4170-6"
       style="color:#000000;clip-rule:nonzero;display:inline;overflow:visible;visibility:visible;opacity:1;isolation:auto;mix-blend-mode:normal;color-interpolation:sRGB;color-interpolation-filters:linearRGB;solid-color:#000000;solid-opacity:1;fill:#441650;fill-opacity:1;fill-rule:nonzero;stroke:none;stroke-width:1;stroke-linecap:butt;stroke-linejoin:miter;stroke-miterlimit:4;stroke-dasharray:none;stroke-dashoffset:0;stroke-opacity:1;color-rendering:auto;image-rendering:auto;shape-rendering:auto;text-rendering:auto;enable-background:accumulate" />
    <path
       sodipodi:nodetypes="ccssscsssssssssssscsccsssssssscssssssssssssssssccssssssssssssssscsssccssscsssssssssscsss"
       inkscape:connector-curvature="0"
       id="path4140-2"
       d="m 58.699947,-49.783356 c -3.383943,-4.284586 -14.110631,5.440706 -14.110631,5.440706 1.230774,-4.045017 1.406586,-5.032474 0.467952,-7.084579 -1.007545,-2.202761 -3.141361,-2.009883 -4.342821,-1.462463 -1.05537,0.480861 -1.83129,0.395891 -3.29454,-0.360786 -3.52857,-1.824696 -3.00033,-3.899019 0.9977,-3.917856 1.0725,-0.005 1.95,-0.308075 1.95,-0.673382 0,-0.365306 -0.42708,-0.500306 -0.94907,-0.3 -0.52199,0.200307 -1.73076,0.364194 -2.68617,0.364194 -2.84562,0 -3.78539,2.074462 -2.97195,6.560341 0.72946,4.022713 0.42355,5.332134 -0.97462,4.171756 -0.65042,-0.539798 -1.595148,-2.656587 -0.987473,-2.097218 1.694973,1.560231 1.279353,-0.302073 0.499143,-2.721596 -2.45888,-7.625195 -2.47292,-7.713283 -1.22986,-7.713283 0.60517,0 0.9,-0.605297 0.9,-1.847673 0,-1.751792 0.096,-1.826594 1.8494,-1.441477 1.68511,0.370111 1.81843,0.283963 1.65,-0.990253 -0.31875,-2.411412 -1.237964,-3.845406 -4.805284,-3.121843 -1.92979,0.391422 -2.62492,1.399152 -3.41002,2.525583 -3.71762,7.390097 3.79258,14.009692 5.77591,16.655842 0.42264,0.563886 -0.538896,0.02659 -0.299986,0.711653 -8.92662,-9.155897 -7.52753,-13.705056 -7.23458,-15.697433 l 1.18645,-2.725153 c 0.25717,-0.590686 0.53185,-1.126288 0.34476,-1.514945 -1.22578,-2.546406 -2.65399,-5.311757 3.4591,-7.368604 2.81113,-0.94585 5.08425,-3.397041 5.08425,-5.004456 0,-0.581311 -0.95439,-1.894899 -2.12088,-2.919085 -2.83842,-2.492169 -5.49521,-2.470015 -10.53516,0.08784 -4.508,2.287897 -7.88269,6.343469 -6.76085,8.124937 0.9103,1.445537 2.36272,1.582407 4.75341,0.447942 1.96667,-0.933242 2.68302,-1.806926 2.51354,-4.464702 0.453,0.727344 0.70622,2.010955 0.70622,2.010955 0.10562,1.685449 -0.29679,2.108519 -1.51506,3.524194 -1.81306,2.106839 -3.76446,2.806673 -6.84626,2.806673 -6.9059498,0 -5.00243,-10.827457 2.7468,-15.624063 5.28563,-3.271698 15.08515,-1.369543 20.02307,3.886625 1.48131,1.576786 3.03517,2.036518 3.03517,0.897999 0,-3.037287 -6.44596,-9.175365 -11.39611,-10.851798 -1.07158,-0.362903 -0.67578,-0.425079 1.37688,-0.216294 5.6105,0.57067 12.31915,5.690152 13.97016,10.660858 0.53566,1.612741 1.37178,3.084922 1.85803,3.271514 1.2824,0.492102 2.57754,-1.07669 2.99068,-3.622589 0.33288,-2.051292 0.13856,-2.435481 -2.63441,-5.208447 -1.64659,-1.646589 -2.82987,-2.993628 -2.62951,-2.99342 1.62284,0.0017 11.46428,9.622105 11.46428,11.206828 0,0.320989 -0.68623,1.228294 -1.52495,2.016235 -2.21905,2.084686 -2.164543,4.268454 1.642387,6.262363 1.9435,1.01792 6.171244,4.166183 9.196844,6.223432 3.120017,5.056175 -1.984813,10.137986 -7.181941,14.084928 z m 1.348261,-8.513635 c 3.558236,-6.129561 -5.483401,-11.959215 -7.482731,-12.71936 -2.2187,-0.843549 -2.28953,-2.113318 -0.25555,-4.580898 1.99661,-2.422232 2.28913,-4.061634 1.02245,-5.730272 -1.10431,-1.454753 -1.35813,-1.333185 -1.79689,0.86063 -0.51687,2.584346 -2.00632,4.08937 -4.04704,4.08937 -1.96061,0 -3.09313,-1.447301 -4.0883,-5.224667 -0.36583,-1.388566 -0.92781,-2.687 -1.24884,-2.885409 -0.78098,-0.482673 -0.74276,-0.217164 0.34276,2.380844 1.75326,4.196141 -0.29633,5.932277 -3.44363,2.916977 -1.57336,-1.507382 -1.68283,-1.53216 -1.68283,-0.380915 0,1.867079 -1.74326,5.467434 -5.70702,6.249277 -4.77788,0.942427 -5.52342,2.289962 -3.64026,5.667592 0.60566,1.086309 1.09169,0.12643 3.3214,-0.03071 3.15646,-0.22245 3.87263,0.310832 5.89687,1.650407 2.48775,1.646315 4.734741,4.843774 5.23334,9.966107 5.455656,8.468679 14.369107,3.295818 17.576271,-2.228973 z m -14.857231,-0.890397 c -0.39165,-0.210883 -0.94502,-0.456793 -2.60504,-1.369583 0.8983,0.125734 2.29903,0.381748 2.73166,0.384848 1.45102,-0.02233 1.79239,-0.664654 2.45264,-1.77339 1.21329,-2.037435 1.59082,-1.775911 3.81896,-1.083576 2.06926,0.642966 2.38312,0.826142 2.94736,-0.441287 0.30621,-0.68782 0.86964,-3.743448 1.18042,-4.985103 -0.0438,1.44331 -0.22069,4.349341 -0.24806,4.636888 -0.20264,2.126519 0.0317,3.177675 -2.91656,2.054241 -2.605,-0.99262 -3.43442,-0.807517 -4.48815,1.391011 -0.79671,1.662283 -0.54106,2.441718 -1.55608,1.895177 z m -6.95545,-9.054873 c -0.93347,-1.42466 -0.93514,-1.643321 -0.0231,-3.03526 1.23219,-1.880556 3.91049,-2.006855 5.49228,-0.258998 1.02489,1.132488 1.0445,1.381697 0.22428,2.85 -1.28798,2.305636 -4.31887,2.542136 -5.69346,0.444258 z m 4.13853,-0.08499 c 0.44137,-0.279767 0.91401,-0.773185 0.70132,-2.016803 -0.3004,-1.756433 -3.13221,-2.095746 -4.14239,-0.448323 -0.53276,0.868851 -0.3303,1.837935 0.37264,2.380608 0.9538,0.736335 1.98312,0.772448 3.06843,0.08452 z"
       style="fill:#000000" />
    <path
       inkscape:connector-curvature="0"
       id="path4172-9"
       d="m 45.709567,-62.590541 c -0.0516,-0.01113 -0.32843,-0.09015 -0.61507,-0.175599 -0.28666,-0.08545 -0.75251,-0.219607 -1.03524,-0.298128 -0.80265,-0.222907 -1.53434,-0.440081 -1.52594,-0.452906 0.004,-0.0063 0.35934,-0.02996 0.7892,-0.05232 0.96864,-0.05039 1.18109,-0.07898 1.4854,-0.199932 0.3981,-0.158222 0.65568,-0.392623 0.83194,-0.757086 0.0493,-0.102074 0.16819,-0.406715 0.26406,-0.676949 0.29819,-0.840562 0.46035,-1.145278 0.71514,-1.343768 0.12286,-0.09571 0.16087,-0.111138 0.3819,-0.155001 0.28379,-0.05626 0.43145,-0.05254 1.31192,0.0334 1.22232,0.119307 1.44534,0.129649 1.69126,0.07841 0.17883,-0.03726 0.3224,-0.142032 0.4045,-0.295212 0.0326,-0.06096 0.0923,-0.238843 0.13261,-0.395264 0.0884,-0.343629 0.11325,-0.82662 0.12511,-2.434103 0.004,-0.600262 0.009,-1.127999 0.0111,-1.172751 0.0135,-0.354515 0.57715,3.429745 0.61611,4.13631 0.0205,0.37127 -0.0528,0.637865 -0.20854,0.758736 -0.12428,0.09645 -0.44954,0.175588 -0.72974,0.177527 -0.12264,8.52e-4 -0.40335,-0.02151 -0.62379,-0.04969 -0.22046,-0.02819 -0.59498,-0.07589 -0.83226,-0.10601 -1.35329,-0.17181 -1.93406,0.0807 -2.30099,1.000461 -0.17853,0.447492 -0.29694,0.946368 -0.39694,1.672461 -0.0754,0.547272 -0.12019,0.656996 -0.28552,0.699055 -0.0618,0.01573 -0.15462,0.01949 -0.20626,0.0084 z"
       style="color:#000000;clip-rule:nonzero;display:inline;overflow:visible;visibility:visible;opacity:1;isolation:auto;mix-blend-mode:normal;color-interpolation:sRGB;color-interpolation-filters:linearRGB;solid-color:#000000;solid-opacity:1;fill:#0055d4;fill-opacity:1;fill-rule:nonzero;stroke:none;stroke-width:1;stroke-linecap:butt;stroke-linejoin:miter;stroke-miterlimit:4;stroke-dasharray:none;stroke-dashoffset:0;stroke-opacity:1;color-rendering:auto;image-rendering:auto;shape-rendering:auto;text-rendering:auto;enable-background:accumulate" />
  </g>
</svg>
